Univariate examples • predRecruit
…
These elements are * pred, a dataframe consisting of our original
data, with responses and covariates binded together. Also includes model
predictions est, uncertainty se and several
metrics describing the fit to the training data (train_r2
and train_rmse). * vars, a dataframe containing the
combination of each unique set of covariates included, ranging from 1 to
max_vars * coefs, a list containing coefficients elements
for each model that was fit. For models with n_forecast
larger than 1, a set of coefficients will be returned for each year that
is used as a holdout datapoint. For the above example, we can look
at

lm_example$coefs[[1]]

## # A tibble: 30 × 6
##    term  estimate std.error statistic p.value    yr
##    <chr>    <dbl>     <dbl>     <dbl>   <dbl> <int>
##  1 cov1   -0.298      0.170    -1.75   0.0909    31
##  2 cov2    0.313      0.161     1.94   0.0624    31
##  3 cov3   -0.0552     0.137    -0.402  0.691     31
##  4 cov1   -0.290      0.174    -1.67   0.107     32
##  5 cov2    0.264      0.161     1.63   0.114     32
##  6 cov3   -0.0725     0.140    -0.517  0.609     32
##  7 cov1   -0.289      0.185    -1.56   0.129     33
##  8 cov2    0.258      0.172     1.51   0.143     33
##  9 cov3   -0.0500     0.148    -0.337  0.739     33
## 10 cov1   -0.378      0.189    -2.00   0.0546    34
## # … with 20 more rows
…
